EESchema Schematic File Version 4
EELAYER 26 0
EELAYER END
$Descr A4 11693 8268
encoding utf-8
Sheet 2 2
Title ""
Date ""
Rev ""
Comp ""
Comment1 ""
Comment2 ""
Comment3 ""
Comment4 ""
$EndDescr
$Comp
L LM25085MYE_NOPB:LM25085MYE_NOPB IC1
U 1 1 61E03827
P 4050 2600
F 0 "IC1" H 4650 2865 50  0000 C CNN
F 1 "LM25085MYE_NOPB" H 4650 2774 50  0000 C CNN
F 2 "LM25085MYE_NOPB:SOP65P490X110-9N" H 5100 2700 50  0001 L CNN
F 3 "http://www.ti.com/lit/gpn/lm25085" H 5100 2600 50  0001 L CNN
F 4 "Texas Instruments LM25085MYE/NOPB, DC-DC Controller, 1.75A, 42 V Step-Down, 1000 kHz, 8-Pin, MSOP" H 5100 2500 50  0001 L CNN "Description"
F 5 "1.1" H 5100 2400 50  0001 L CNN "Height"
F 6 "Texas Instruments" H 5100 2300 50  0001 L CNN "Manufacturer_Name"
F 7 "LM25085MYE/NOPB" H 5100 2200 50  0001 L CNN "Manufacturer_Part_Number"
F 8 "926-LM25085MYE/NOPB" H 5100 2100 50  0001 L CNN "Mouser Part Number"
F 9 "https://www.mouser.co.uk/ProductDetail/Texas-Instruments/LM25085MYE-NOPB?qs=X1J7HmVL2ZGcinjO9CsXdg%3D%3D" H 5100 2000 50  0001 L CNN "Mouser Price/Stock"
F 10 "LM25085MYE/NOPB" H 5100 1900 50  0001 L CNN "Arrow Part Number"
F 11 "https://www.arrow.com/en/products/lm25085myenopb/texas-instruments" H 5100 1800 50  0001 L CNN "Arrow Price/Stock"
	1    4050 2600
	1    0    0    -1  
$EndComp
$Comp
L Device:R R1
U 1 1 61E03923
P 2750 1700
F 0 "R1" H 2820 1746 50  0000 L CNN
F 1 "39.2kOhm" H 2820 1655 50  0000 L CNN
F 2 "Resistor_SMD:R_0603_1608Metric" V 2680 1700 50  0001 C CNN
F 3 "~" H 2750 1700 50  0001 C CNN
	1    2750 1700
	1    0    0    -1  
$EndComp
$Comp
L Device:R R2
U 1 1 61E03A57
P 3250 2600
F 0 "R2" V 3043 2600 50  0000 C CNN
F 1 "732Ohm" V 3134 2600 50  0000 C CNN
F 2 "Resistor_SMD:R_0603_1608Metric" V 3180 2600 50  0001 C CNN
F 3 "~" H 3250 2600 50  0001 C CNN
	1    3250 2600
	0    1    1    0   
$EndComp
$Comp
L Device:R R5
U 1 1 61E03AED
P 8750 2400
F 0 "R5" H 8680 2354 50  0000 R CNN
F 1 "10kOhm" H 8680 2445 50  0000 R CNN
F 2 "Resistor_SMD:R_0603_1608Metric" V 8680 2400 50  0001 C CNN
F 3 "~" H 8750 2400 50  0001 C CNN
	1    8750 2400
	-1   0    0    1   
$EndComp
$Comp
L Device:R R3
U 1 1 61E03B94
P 6200 2250
F 0 "R3" H 6130 2204 50  0000 R CNN
F 1 "10mOhm" H 6130 2295 50  0000 R CNN
F 2 "Resistor_SMD:R_0603_1608Metric" V 6130 2250 50  0001 C CNN
F 3 "~" H 6200 2250 50  0001 C CNN
	1    6200 2250
	-1   0    0    1   
$EndComp
$Comp
L Device:R R4
U 1 1 61E03D2B
P 8750 1900
F 0 "R4" H 8680 1854 50  0000 R CNN
F 1 "2.2kOhm" H 8680 1945 50  0000 R CNN
F 2 "Resistor_SMD:R_0603_1608Metric" V 8680 1900 50  0001 C CNN
F 3 "~" H 8750 1900 50  0001 C CNN
	1    8750 1900
	-1   0    0    1   
$EndComp
$Comp
L Device:C C1
U 1 1 61E03DE2
P 2350 1750
F 0 "C1" H 2465 1796 50  0000 L CNN
F 1 "10uF" H 2465 1705 50  0000 L CNN
F 2 "Capacitor_SMD:C_0603_1608Metric" H 2388 1600 50  0001 C CNN
F 3 "~" H 2350 1750 50  0001 C CNN
	1    2350 1750
	1    0    0    -1  
$EndComp
$Comp
L Device:C C3
U 1 1 61E03E47
P 5550 2250
F 0 "C3" H 5665 2296 50  0000 L CNN
F 1 "470nF" H 5665 2205 50  0000 L CNN
F 2 "Capacitor_SMD:C_0603_1608Metric" H 5588 2100 50  0001 C CNN
F 3 "~" H 5550 2250 50  0001 C CNN
	1    5550 2250
	1    0    0    -1  
$EndComp
$Comp
L Connector_Generic:Conn_01x02 J3
U 1 1 61E103BE
P 1450 3900
F 0 "J3" H 1450 4150 50  0000 C CNN
F 1 "Battery 7.4-8.4V" H 1450 4050 50  0000 C CNN
F 2 "payloadfootprintLIBRARY:XT30PWM" H 1450 3900 50  0001 C CNN
F 3 "~" H 1450 3900 50  0001 C CNN
	1    1450 3900
	1    0    0    -1  
$EndComp
$Comp
L power:GND #PWR014
U 1 1 61E10561
P 1250 4000
F 0 "#PWR014" H 1250 3750 50  0001 C CNN
F 1 "GND" H 1255 3827 50  0000 C CNN
F 2 "" H 1250 4000 50  0001 C CNN
F 3 "" H 1250 4000 50  0001 C CNN
	1    1250 4000
	1    0    0    -1  
$EndComp
$Comp
L power:GND #PWR018
U 1 1 61E107B7
P 2350 1900
F 0 "#PWR018" H 2350 1650 50  0001 C CNN
F 1 "GND" H 2355 1727 50  0000 C CNN
F 2 "" H 2350 1900 50  0001 C CNN
F 3 "" H 2350 1900 50  0001 C CNN
	1    2350 1900
	1    0    0    -1  
$EndComp
$Comp
L power:+BATT #PWR013
U 1 1 61E10841
P 950 3800
F 0 "#PWR013" H 950 3650 50  0001 C CNN
F 1 "+BATT" V 965 3928 50  0000 L CNN
F 2 "" H 950 3800 50  0001 C CNN
F 3 "" H 950 3800 50  0001 C CNN
	1    950  3800
	1    0    0    -1  
$EndComp
$Comp
L power:+BATT #PWR017
U 1 1 61E10B1C
P 2350 1400
F 0 "#PWR017" H 2350 1250 50  0001 C CNN
F 1 "+BATT" H 2365 1573 50  0000 C CNN
F 2 "" H 2350 1400 50  0001 C CNN
F 3 "" H 2350 1400 50  0001 C CNN
	1    2350 1400
	1    0    0    -1  
$EndComp
$Comp
L power:+BATT #PWR019
U 1 1 61E10D8F
P 2750 1400
F 0 "#PWR019" H 2750 1250 50  0001 C CNN
F 1 "+BATT" H 2765 1573 50  0000 C CNN
F 2 "" H 2750 1400 50  0001 C CNN
F 3 "" H 2750 1400 50  0001 C CNN
	1    2750 1400
	1    0    0    -1  
$EndComp
$Comp
L power:GND #PWR021
U 1 1 61E11527
P 4050 2900
F 0 "#PWR021" H 4050 2650 50  0001 C CNN
F 1 "GND" H 4055 2727 50  0000 C CNN
F 2 "" H 4050 2900 50  0001 C CNN
F 3 "" H 4050 2900 50  0001 C CNN
	1    4050 2900
	1    0    0    -1  
$EndComp
$Comp
L power:+BATT #PWR022
U 1 1 61E11718
P 5550 2100
F 0 "#PWR022" H 5550 1950 50  0001 C CNN
F 1 "+BATT" H 5565 2273 50  0000 C CNN
F 2 "" H 5550 2100 50  0001 C CNN
F 3 "" H 5550 2100 50  0001 C CNN
	1    5550 2100
	1    0    0    -1  
$EndComp
Wire Wire Line
	5550 2400 5550 2700
Wire Wire Line
	5550 2700 5250 2700
$Comp
L Device:C C2
U 1 1 61E11A87
P 3250 2150
F 0 "C2" V 2998 2150 50  0000 C CNN
F 1 "1nF" V 3089 2150 50  0000 C CNN
F 2 "Capacitor_SMD:C_0603_1608Metric" H 3288 2000 50  0001 C CNN
F 3 "~" H 3250 2150 50  0001 C CNN
	1    3250 2150
	0    1    1    0   
$EndComp
$Comp
L power:+BATT #PWR020
U 1 1 61E120FD
P 3550 2150
F 0 "#PWR020" H 3550 2000 50  0001 C CNN
F 1 "+BATT" H 3565 2323 50  0000 C CNN
F 2 "" H 3550 2150 50  0001 C CNN
F 3 "" H 3550 2150 50  0001 C CNN
	1    3550 2150
	1    0    0    -1  
$EndComp
Connection ~ 3550 2150
Wire Wire Line
	3550 2150 3400 2150
Wire Wire Line
	3550 2150 3550 2600
Wire Wire Line
	3100 2150 3000 2150
Wire Wire Line
	3000 2150 3000 2600
Wire Wire Line
	3000 2600 3100 2600
Wire Wire Line
	3400 2600 3550 2600
$Comp
L power:+BATT #PWR023
U 1 1 61E12890
P 6200 2100
F 0 "#PWR023" H 6200 1950 50  0001 C CNN
F 1 "+BATT" H 6215 2273 50  0000 C CNN
F 2 "" H 6200 2100 50  0001 C CNN
F 3 "" H 6200 2100 50  0001 C CNN
	1    6200 2100
	1    0    0    -1  
$EndComp
$Comp
L Device:L L1
U 1 1 61E12F30
P 7900 1650
F 0 "L1" V 7722 1650 50  0000 C CNN
F 1 "L" V 7813 1650 50  0000 C CNN
F 2 "payloadfootprintLIBRARY:EPL2010822MLB" H 7900 1650 50  0001 C CNN
F 3 "~" H 7900 1650 50  0001 C CNN
	1    7900 1650
	0    1    1    0   
$EndComp
Wire Wire Line
	5250 2800 5950 2800
Wire Wire Line
	5250 2900 6200 2900
$Comp
L Device:C C4
U 1 1 61E14562
P 8100 1900
F 0 "C4" H 8215 1946 50  0000 L CNN
F 1 "470nF" H 8215 1855 50  0000 L CNN
F 2 "Capacitor_SMD:C_0603_1608Metric" H 8138 1750 50  0001 C CNN
F 3 "~" H 8100 1900 50  0001 C CNN
	1    8100 1900
	1    0    0    -1  
$EndComp
Wire Wire Line
	8050 1650 8100 1650
Wire Wire Line
	8100 1650 8100 1750
Wire Wire Line
	8100 2050 8100 2150
Wire Wire Line
	8100 2150 8750 2150
Wire Wire Line
	8750 2150 8750 2050
Wire Wire Line
	8750 2150 8750 2250
Connection ~ 8750 2150
Wire Wire Line
	8750 1650 8750 1750
Connection ~ 8100 1650
$Comp
L Device:CP1 C5
U 1 1 61E14DB7
P 9450 1950
F 0 "C5" H 9565 1996 50  0000 L CNN
F 1 "47uF" H 9565 1905 50  0000 L CNN
F 2 "Capacitor_SMD:C_0603_1608Metric" H 9450 1950 50  0001 C CNN
F 3 "~" H 9450 1950 50  0001 C CNN
	1    9450 1950
	1    0    0    -1  
$EndComp
Wire Wire Line
	8750 1650 9450 1650
Wire Wire Line
	9450 1650 9450 1800
Connection ~ 8750 1650
Wire Wire Line
	8750 2550 8750 2650
Wire Wire Line
	9450 2650 9450 2100
$Comp
L power:GND #PWR024
U 1 1 61E16C30
P 7700 1950
F 0 "#PWR024" H 7700 1700 50  0001 C CNN
F 1 "GND" H 7705 1777 50  0000 C CNN
F 2 "" H 7700 1950 50  0001 C CNN
F 3 "" H 7700 1950 50  0001 C CNN
	1    7700 1950
	1    0    0    -1  
$EndComp
Wire Wire Line
	2750 1400 2750 1500
Wire Wire Line
	2350 1400 2350 1500
Wire Wire Line
	2350 1500 2750 1500
Connection ~ 2750 1500
Wire Wire Line
	2750 1500 2750 1550
Wire Wire Line
	2350 1500 2350 1600
Connection ~ 2350 1500
Wire Wire Line
	3550 2600 4050 2600
Connection ~ 3550 2600
Wire Wire Line
	2750 1850 2750 2700
Wire Wire Line
	2750 2700 4050 2700
Wire Wire Line
	2750 1500 5250 1500
Wire Wire Line
	5250 1500 5250 2600
$Comp
L power:+5V #PWR026
U 1 1 61E325B4
P 9450 1650
F 0 "#PWR026" H 9450 1500 50  0001 C CNN
F 1 "+5V" V 9465 1778 50  0000 L CNN
F 2 "" H 9450 1650 50  0001 C CNN
F 3 "" H 9450 1650 50  0001 C CNN
	1    9450 1650
	0    1    1    0   
$EndComp
NoConn ~ 4650 3400
Wire Wire Line
	4050 2800 3600 2800
Wire Wire Line
	3600 2800 3600 3550
Wire Wire Line
	3600 3550 8100 3550
Wire Wire Line
	8100 3550 8100 2150
Connection ~ 8100 2150
Wire Wire Line
	8750 2650 9450 2650
$Comp
L power:GND #PWR0101
U 1 1 61E71A4C
P 8750 2650
F 0 "#PWR0101" H 8750 2400 50  0001 C CNN
F 1 "GND" H 8755 2477 50  0000 C CNN
F 2 "" H 8750 2650 50  0001 C CNN
F 3 "" H 8750 2650 50  0001 C CNN
	1    8750 2650
	1    0    0    -1  
$EndComp
Connection ~ 8750 2650
Connection ~ 9450 1650
Wire Wire Line
	1250 3900 950  3900
Wire Wire Line
	950  3900 950  3800
$Comp
L Device:C C?
U 1 1 61E7D559
P 7850 4950
AR Path="/61E41970/61E7D559" Ref="C?"  Part="1" 
AR Path="/61E0354C/61E7D559" Ref="C9"  Part="1" 
F 0 "C9" H 7965 4996 50  0000 L CNN
F 1 "10uF" H 7965 4905 50  0000 L CNN
F 2 "Capacitor_SMD:C_0603_1608Metric" H 7888 4800 50  0001 C CNN
F 3 "~" H 7850 4950 50  0001 C CNN
	1    7850 4950
	1    0    0    -1  
$EndComp
$Comp
L Device:C C?
U 1 1 61E7D560
P 4350 4900
AR Path="/61E41970/61E7D560" Ref="C?"  Part="1" 
AR Path="/61E0354C/61E7D560" Ref="C7"  Part="1" 
F 0 "C7" H 4465 4946 50  0000 L CNN
F 1 "100nF" H 4465 4855 50  0000 L CNN
F 2 "Capacitor_SMD:C_0603_1608Metric" H 4388 4750 50  0001 C CNN
F 3 "~" H 4350 4900 50  0001 C CNN
	1    4350 4900
	1    0    0    -1  
$EndComp
$Comp
L Device:C C?
U 1 1 61E7D567
P 6150 4300
AR Path="/61E41970/61E7D567" Ref="C?"  Part="1" 
AR Path="/61E0354C/61E7D567" Ref="C8"  Part="1" 
F 0 "C8" H 6265 4346 50  0000 L CNN
F 1 "100nF" H 6265 4255 50  0000 L CNN
F 2 "Capacitor_SMD:C_0603_1608Metric" H 6188 4150 50  0001 C CNN
F 3 "~" H 6150 4300 50  0001 C CNN
	1    6150 4300
	1    0    0    -1  
$EndComp
$Comp
L Device:C C?
U 1 1 61E7D56E
P 3850 4900
AR Path="/61E41970/61E7D56E" Ref="C?"  Part="1" 
AR Path="/61E0354C/61E7D56E" Ref="C6"  Part="1" 
F 0 "C6" H 3965 4946 50  0000 L CNN
F 1 "10uF" H 3965 4855 50  0000 L CNN
F 2 "Capacitor_SMD:C_0603_1608Metric" H 3888 4750 50  0001 C CNN
F 3 "~" H 3850 4900 50  0001 C CNN
	1    3850 4900
	1    0    0    -1  
$EndComp
$Comp
L Device:R R?
U 1 1 61E7D575
P 7200 5200
AR Path="/61E41970/61E7D575" Ref="R?"  Part="1" 
AR Path="/61E0354C/61E7D575" Ref="R7"  Part="1" 
F 0 "R7" H 7270 5246 50  0000 L CNN
F 1 "10kOhm" H 7270 5155 50  0000 L CNN
F 2 "Resistor_SMD:R_0603_1608Metric" V 7130 5200 50  0001 C CNN
F 3 "~" H 7200 5200 50  0001 C CNN
	1    7200 5200
	1    0    0    -1  
$EndComp
$Comp
L Device:R R?
U 1 1 61E7D57C
P 7200 4700
AR Path="/61E41970/61E7D57C" Ref="R?"  Part="1" 
AR Path="/61E0354C/61E7D57C" Ref="R6"  Part="1" 
F 0 "R6" H 7270 4746 50  0000 L CNN
F 1 "51.7kOhm" H 7270 4655 50  0000 L CNN
F 2 "Resistor_SMD:R_0603_1608Metric" V 7130 4700 50  0001 C CNN
F 3 "~" H 7200 4700 50  0001 C CNN
	1    7200 4700
	1    0    0    -1  
$EndComp
$Comp
L Device:L L?
U 1 1 61E7D583
P 6650 4550
AR Path="/61E41970/61E7D583" Ref="L?"  Part="1" 
AR Path="/61E0354C/61E7D583" Ref="L2"  Part="1" 
F 0 "L2" V 6472 4550 50  0000 C CNN
F 1 "4.7uH" V 6563 4550 50  0000 C CNN
F 2 "payloadfootprintLIBRARY:EPL2010822MLB" H 6650 4550 50  0001 C CNN
F 3 "~" H 6650 4550 50  0001 C CNN
	1    6650 4550
	0    1    1    0   
$EndComp
Wire Wire Line
	3850 4750 3850 4500
Wire Wire Line
	3850 4500 4350 4500
Wire Wire Line
	4350 4750 4350 4500
Wire Wire Line
	5750 4150 6150 4150
Wire Wire Line
	6150 4150 6500 4150
Connection ~ 6150 4150
Wire Wire Line
	6800 4550 6850 4550
Wire Wire Line
	6200 4700 6200 4950
Wire Wire Line
	7200 5400 7200 5350
Wire Wire Line
	4350 5050 4350 5400
$Comp
L power:GND #PWR?
U 1 1 61E7D5AD
P 5400 4800
AR Path="/61E41970/61E7D5AD" Ref="#PWR?"  Part="1" 
AR Path="/61E0354C/61E7D5AD" Ref="#PWR0102"  Part="1" 
F 0 "#PWR0102" H 5400 4550 50  0001 C CNN
F 1 "GND" H 5405 4627 50  0000 C CNN
F 2 "" H 5400 4800 50  0001 C CNN
F 3 "" H 5400 4800 50  0001 C CNN
	1    5400 4800
	1    0    0    -1  
$EndComp
Wire Wire Line
	7200 4550 7850 4550
Wire Wire Line
	7850 4550 7850 4800
Wire Wire Line
	7200 5400 7400 5400
Wire Wire Line
	7850 5400 7850 5100
Connection ~ 7200 5400
Connection ~ 7850 4550
$Comp
L power:VDD #PWR?
U 1 1 61E7D5BA
P 7850 4550
AR Path="/61E41970/61E7D5BA" Ref="#PWR?"  Part="1" 
AR Path="/61E0354C/61E7D5BA" Ref="#PWR0103"  Part="1" 
F 0 "#PWR0103" H 7850 4400 50  0001 C CNN
F 1 "VDD" V 7867 4678 50  0000 L CNN
F 2 "" H 7850 4550 50  0001 C CNN
F 3 "" H 7850 4550 50  0001 C CNN
	1    7850 4550
	1    0    0    -1  
$EndComp
Wire Wire Line
	4350 5400 7200 5400
$Comp
L power:GND #PWR?
U 1 1 61E7D5C8
P 7400 5400
AR Path="/61E41970/61E7D5C8" Ref="#PWR?"  Part="1" 
AR Path="/61E0354C/61E7D5C8" Ref="#PWR0105"  Part="1" 
F 0 "#PWR0105" H 7400 5150 50  0001 C CNN
F 1 "GND" H 7405 5227 50  0000 C CNN
F 2 "" H 7400 5400 50  0001 C CNN
F 3 "" H 7400 5400 50  0001 C CNN
	1    7400 5400
	1    0    0    -1  
$EndComp
Connection ~ 4350 5400
Wire Wire Line
	3850 5400 4100 5400
Wire Wire Line
	3850 5050 3850 5400
$Comp
L power:GND #PWR?
U 1 1 61E7D5D1
P 4100 5400
AR Path="/61E41970/61E7D5D1" Ref="#PWR?"  Part="1" 
AR Path="/61E0354C/61E7D5D1" Ref="#PWR0106"  Part="1" 
F 0 "#PWR0106" H 4100 5150 50  0001 C CNN
F 1 "GND" H 4105 5227 50  0000 C CNN
F 2 "" H 4100 5400 50  0001 C CNN
F 3 "" H 4100 5400 50  0001 C CNN
	1    4100 5400
	1    0    0    -1  
$EndComp
$Comp
L power:+BATT #PWR?
U 1 1 61E7D5D8
P 3850 4500
AR Path="/61E41970/61E7D5D8" Ref="#PWR?"  Part="1" 
AR Path="/61E0354C/61E7D5D8" Ref="#PWR0107"  Part="1" 
F 0 "#PWR0107" H 3850 4350 50  0001 C CNN
F 1 "+BATT" H 3865 4673 50  0000 C CNN
F 2 "" H 3850 4500 50  0001 C CNN
F 3 "" H 3850 4500 50  0001 C CNN
	1    3850 4500
	1    0    0    -1  
$EndComp
Connection ~ 3850 4500
$Comp
L Diode:1.5KExxA D1
U 1 1 61E90513
P 7700 1800
F 0 "D1" V 7654 1879 50  0000 L CNN
F 1 "SS14FL" V 7745 1879 50  0000 L CNN
F 2 "payloadfootprintLIBRARY:SODFL4724X108N" H 7700 1600 50  0001 C CNN
F 3 "https://www.vishay.com/docs/88301/15ke.pdf" H 7650 1800 50  0001 C CNN
	1    7700 1800
	0    1    1    0   
$EndComp
Wire Wire Line
	6200 2550 6200 2900
Wire Wire Line
	6200 2400 6200 2550
Connection ~ 6200 2550
Wire Wire Line
	6200 2550 6550 2550
Wire Wire Line
	6550 1350 6550 2550
$Comp
L FDC5614P:FDC5614P Q1
U 1 1 61E877D7
P 6550 1150
F 0 "Q1" H 7050 1415 50  0000 C CNN
F 1 "FDC5614P" H 7050 1324 50  0000 C CNN
F 2 "payloadfootprintLIBRARY:SOT95P280X110-6N" H 7400 1250 50  0001 L CNN
F 3 "https://mouser.componentsearchengine.com/Datasheets/2/FDC5614P.pdf" H 7400 1150 50  0001 L CNN
F 4 "ON SEMICONDUCTOR - FDC5614P - MOSFET Transistor, P Channel, -3 A, -60 V, 0.105 ohm, -10 V, -1.6 V" H 7400 1050 50  0001 L CNN "Description"
F 5 "1.1" H 7400 950 50  0001 L CNN "Height"
F 6 "ON Semiconductor" H 7400 850 50  0001 L CNN "Manufacturer_Name"
F 7 "FDC5614P" H 7400 750 50  0001 L CNN "Manufacturer_Part_Number"
F 8 "512-FDC5614P" H 7400 650 50  0001 L CNN "Mouser Part Number"
F 9 "https://www.mouser.co.uk/ProductDetail/ON-Semiconductor-Fairchild/FDC5614P?qs=mdiO5HdF0KhXuzpCnxvnAg%3D%3D" H 7400 550 50  0001 L CNN "Mouser Price/Stock"
F 10 "FDC5614P" H 7400 450 50  0001 L CNN "Arrow Part Number"
F 11 "https://www.arrow.com/en/products/fdc5614p/on-semiconductor?region=nac" H 7400 350 50  0001 L CNN "Arrow Price/Stock"
	1    6550 1150
	1    0    0    -1  
$EndComp
Wire Wire Line
	6550 1250 6550 1150
Connection ~ 6550 1150
Wire Wire Line
	6550 1150 6550 900 
Wire Wire Line
	6550 900  7550 900 
Wire Wire Line
	5950 1150 6550 1150
Wire Wire Line
	5950 1150 5950 2800
Wire Wire Line
	8100 1650 8250 1650
Wire Wire Line
	8100 1650 8750 1650
Wire Wire Line
	7750 1650 7700 1650
Wire Wire Line
	7700 1650 7700 1350
Wire Wire Line
	7700 1350 7550 1350
Connection ~ 7700 1650
Wire Wire Line
	7550 900  7550 1250
Connection ~ 4350 4500
Connection ~ 4100 5400
Wire Wire Line
	4100 5400 4350 5400
Wire Wire Line
	5750 4500 5750 4150
Wire Wire Line
	6150 4600 6150 4450
$Comp
L payload:TPS563207DRL U6
U 1 1 61EB39A7
P 5050 4650
F 0 "U6" H 5050 5025 50  0000 C CNN
F 1 "TPS563207DRL" H 5050 4934 50  0000 C CNN
F 2 "payloadfootprintLIBRARY:TPS563207DRLR" H 4950 4450 50  0001 C CNN
F 3 "" H 4950 4450 50  0001 C CNN
	1    5050 4650
	1    0    0    -1  
$EndComp
Wire Wire Line
	4350 4500 4550 4500
Wire Wire Line
	4550 4500 4550 4600
Wire Wire Line
	4550 4600 4700 4600
Connection ~ 4550 4500
Wire Wire Line
	4550 4500 4700 4500
Wire Wire Line
	5400 4700 6200 4700
Wire Wire Line
	5400 4600 6150 4600
Wire Wire Line
	5400 4500 5750 4500
$Comp
L Device:C C?
U 1 1 61EBC998
P 6850 4750
AR Path="/61E41970/61EBC998" Ref="C?"  Part="1" 
AR Path="/61E0354C/61EBC998" Ref="C10"  Part="1" 
F 0 "C10" H 6965 4796 50  0000 L CNN
F 1 "10pF" H 6965 4705 50  0000 L CNN
F 2 "Capacitor_SMD:C_0603_1608Metric" H 6888 4600 50  0001 C CNN
F 3 "~" H 6850 4750 50  0001 C CNN
	1    6850 4750
	1    0    0    -1  
$EndComp
Wire Wire Line
	6850 4600 6850 4550
Connection ~ 6850 4550
Wire Wire Line
	6850 4900 6850 4950
Connection ~ 6850 4950
Wire Wire Line
	6500 4550 6500 4150
Wire Wire Line
	6200 4950 6850 4950
Wire Wire Line
	7200 4850 7200 4950
Wire Wire Line
	6850 4950 7200 4950
Connection ~ 7200 4950
Wire Wire Line
	7200 4950 7200 5050
Wire Wire Line
	6850 4550 7200 4550
Connection ~ 7200 4550
Connection ~ 7400 5400
Wire Wire Line
	7400 5400 7850 5400
$EndSCHEMATC
