EESchema Schematic File Version 4
LIBS:payload-cache
EELAYER 26 0
EELAYER END
$Descr A4 11693 8268
encoding utf-8
Sheet 3 3
Title ""
Date ""
Rev ""
Comp ""
Comment1 ""
Comment2 ""
Comment3 ""
Comment4 ""
$EndDescr
$Comp
L Device:C C9
U 1 1 61E41A64
P 7250 3300
F 0 "C9" H 7365 3346 50  0000 L CNN
F 1 "10uF" H 7365 3255 50  0000 L CNN
F 2 "Capacitor_SMD:C_0603_1608Metric" H 7288 3150 50  0001 C CNN
F 3 "~" H 7250 3300 50  0001 C CNN
	1    7250 3300
	1    0    0    -1  
$EndComp
$Comp
L Device:C C7
U 1 1 61E41ADE
P 3750 3250
F 0 "C7" H 3865 3296 50  0000 L CNN
F 1 "100nF" H 3865 3205 50  0000 L CNN
F 2 "Capacitor_SMD:C_0603_1608Metric" H 3788 3100 50  0001 C CNN
F 3 "~" H 3750 3250 50  0001 C CNN
	1    3750 3250
	1    0    0    -1  
$EndComp
$Comp
L Device:C C8
U 1 1 61E41B2E
P 5550 2650
F 0 "C8" H 5665 2696 50  0000 L CNN
F 1 "100nF" H 5665 2605 50  0000 L CNN
F 2 "Capacitor_SMD:C_0603_1608Metric" H 5588 2500 50  0001 C CNN
F 3 "~" H 5550 2650 50  0001 C CNN
	1    5550 2650
	1    0    0    -1  
$EndComp
$Comp
L Device:C C6
U 1 1 61E41B71
P 3250 3250
F 0 "C6" H 3365 3296 50  0000 L CNN
F 1 "10uF" H 3365 3205 50  0000 L CNN
F 2 "Capacitor_SMD:C_0603_1608Metric" H 3288 3100 50  0001 C CNN
F 3 "~" H 3250 3250 50  0001 C CNN
	1    3250 3250
	1    0    0    -1  
$EndComp
$Comp
L Device:R R7
U 1 1 61E41BB8
P 6600 3550
F 0 "R7" H 6670 3596 50  0000 L CNN
F 1 "22.1kOhm" H 6670 3505 50  0000 L CNN
F 2 "Resistor_SMD:R_0603_1608Metric" V 6530 3550 50  0001 C CNN
F 3 "~" H 6600 3550 50  0001 C CNN
	1    6600 3550
	1    0    0    -1  
$EndComp
$Comp
L Device:R R6
U 1 1 61E41BF9
P 6600 3050
F 0 "R6" H 6670 3096 50  0000 L CNN
F 1 "115kOhm" H 6670 3005 50  0000 L CNN
F 2 "Resistor_SMD:R_0603_1608Metric" V 6530 3050 50  0001 C CNN
F 3 "~" H 6600 3050 50  0001 C CNN
	1    6600 3050
	1    0    0    -1  
$EndComp
$Comp
L Device:L L2
U 1 1 61E41CD0
P 6150 2900
F 0 "L2" V 5972 2900 50  0000 C CNN
F 1 "8.2uH" V 6063 2900 50  0000 C CNN
F 2 "kicad(1):EPL2010822MLB" H 6150 2900 50  0001 C CNN
F 3 "~" H 6150 2900 50  0001 C CNN
	1    6150 2900
	0    1    1    0   
$EndComp
$Comp
L payload-rescue:LMR54406F U6
U 1 1 61E42291
P 4750 2950
F 0 "U6" H 4750 3315 50  0000 C CNN
F 1 "LMR54406F" H 4750 3224 50  0000 C CNN
F 2 "payloadfootprintLIBRARY:LMR54408F" H 4750 2700 50  0001 C CNN
F 3 "" H 4750 2700 50  0001 C CNN
	1    4750 2950
	1    0    0    -1  
$EndComp
Wire Wire Line
	3250 3100 3250 2850
Wire Wire Line
	3250 2850 3750 2850
Wire Wire Line
	3750 3100 3750 2850
Connection ~ 3750 2850
Wire Wire Line
	3750 2850 4150 2850
Wire Wire Line
	4150 2850 4150 2950
Wire Wire Line
	4150 2950 4450 2950
Connection ~ 4150 2850
Wire Wire Line
	4150 2850 4450 2850
Wire Wire Line
	5050 2850 5150 2850
Wire Wire Line
	5150 2850 5150 2500
Wire Wire Line
	5150 2500 5550 2500
Wire Wire Line
	5050 2950 5550 2950
Wire Wire Line
	5550 2950 5550 2800
Wire Wire Line
	5550 2500 6000 2500
Wire Wire Line
	6000 2500 6000 2900
Connection ~ 5550 2500
Wire Wire Line
	6300 2900 6600 2900
Wire Wire Line
	5050 3050 5600 3050
Wire Wire Line
	5600 3050 5600 3300
Wire Wire Line
	5600 3300 6600 3300
Wire Wire Line
	6600 3300 6600 3200
Wire Wire Line
	6600 3300 6600 3400
Connection ~ 6600 3300
Wire Wire Line
	6600 3750 6600 3700
Wire Wire Line
	5050 3150 5150 3150
Wire Wire Line
	5150 3150 5150 3350
Wire Wire Line
	3750 3400 3750 3750
$Comp
L power:GND #PWR030
U 1 1 61E4337E
P 5150 3350
F 0 "#PWR030" H 5150 3100 50  0001 C CNN
F 1 "GND" H 5155 3177 50  0000 C CNN
F 2 "" H 5150 3350 50  0001 C CNN
F 3 "" H 5150 3350 50  0001 C CNN
	1    5150 3350
	1    0    0    -1  
$EndComp
Wire Wire Line
	6600 2900 7250 2900
Wire Wire Line
	7250 2900 7250 3150
Connection ~ 6600 2900
Wire Wire Line
	6600 3750 7250 3750
Wire Wire Line
	7250 3750 7250 3450
Connection ~ 6600 3750
Connection ~ 7250 2900
$Comp
L power:VDD #PWR031
U 1 1 61E44FC9
P 7250 2900
F 0 "#PWR031" H 7250 2750 50  0001 C CNN
F 1 "VDD" V 7267 3028 50  0000 L CNN
F 2 "" H 7250 2900 50  0001 C CNN
F 3 "" H 7250 2900 50  0001 C CNN
	1    7250 2900
	1    0    0    -1  
$EndComp
Wire Wire Line
	3750 3750 6600 3750
$Comp
L power:GND #PWR0102
U 1 1 61E6FEA3
P 7250 3750
F 0 "#PWR0102" H 7250 3500 50  0001 C CNN
F 1 "GND" H 7255 3577 50  0000 C CNN
F 2 "" H 7250 3750 50  0001 C CNN
F 3 "" H 7250 3750 50  0001 C CNN
	1    7250 3750
	1    0    0    -1  
$EndComp
Connection ~ 7250 3750
$Comp
L power:GND #PWR0103
U 1 1 61E6FEC7
P 6600 3750
F 0 "#PWR0103" H 6600 3500 50  0001 C CNN
F 1 "GND" H 6605 3577 50  0000 C CNN
F 2 "" H 6600 3750 50  0001 C CNN
F 3 "" H 6600 3750 50  0001 C CNN
	1    6600 3750
	1    0    0    -1  
$EndComp
Connection ~ 3750 3750
Wire Wire Line
	3250 3750 3750 3750
Wire Wire Line
	3250 3400 3250 3750
$Comp
L power:GND #PWR0104
U 1 1 61E705B0
P 3250 3750
F 0 "#PWR0104" H 3250 3500 50  0001 C CNN
F 1 "GND" H 3255 3577 50  0000 C CNN
F 2 "" H 3250 3750 50  0001 C CNN
F 3 "" H 3250 3750 50  0001 C CNN
	1    3250 3750
	1    0    0    -1  
$EndComp
Connection ~ 3250 3750
$Comp
L power:+BATT #PWR0105
U 1 1 61E7A8AC
P 3250 2850
F 0 "#PWR0105" H 3250 2700 50  0001 C CNN
F 1 "+BATT" H 3265 3023 50  0000 C CNN
F 2 "" H 3250 2850 50  0001 C CNN
F 3 "" H 3250 2850 50  0001 C CNN
	1    3250 2850
	1    0    0    -1  
$EndComp
Connection ~ 3250 2850
$EndSCHEMATC
